


ARM Macro Assembler    Page 1 


    1 00000000         ;/******************************************************
                       ********************//**
    2 00000000         ; * @file     startup_ARMCM3.s
    3 00000000         ; * @brief    CMSIS Core Device Startup File for
    4 00000000         ; *           ARMCM3 Device Series
    5 00000000         ; * @version  V1.08
    6 00000000         ; * @date     23. November 2012
    7 00000000         ; *
    8 00000000         ; * @note
    9 00000000         ; *
   10 00000000         ; ******************************************************
                       ************************/
   11 00000000         ;/* Copyright (c) 2011 - 2012 ARM LIMITED
   12 00000000         ;
   13 00000000         ;   All rights reserved.
   14 00000000         ;   Redistribution and use in source and binary forms, w
                       ith or without
   15 00000000         ;   modification, are permitted provided that the follow
                       ing conditions are met:
   16 00000000         ;   - Redistributions of source code must retain the abo
                       ve copyright
   17 00000000         ;     notice, this list of conditions and the following 
                       disclaimer.
   18 00000000         ;   - Redistributions in binary form must reproduce the 
                       above copyright
   19 00000000         ;     notice, this list of conditions and the following 
                       disclaimer in the
   20 00000000         ;     documentation and/or other materials provided with
                        the distribution.
   21 00000000         ;   - Neither the name of ARM nor the names of its contr
                       ibutors may be used
   22 00000000         ;     to endorse or promote products derived from this s
                       oftware without
   23 00000000         ;     specific prior written permission.
   24 00000000         ;   *
   25 00000000         ;   THIS SOFTWARE IS PROVIDED BY THE COPYRIGHT HOLDERS A
                       ND CONTRIBUTORS "AS IS"
   26 00000000         ;   AND ANY EXPRESS OR IMPLIED WARRANTIES, INCLUDING, BU
                       T NOT LIMITED TO, THE
   27 00000000         ;   IMPLIED WARRANTIES OF MERCHANTABILITY AND FITNESS FO
                       R A PARTICULAR PURPOSE
   28 00000000         ;   ARE DISCLAIMED. IN NO EVENT SHALL COPYRIGHT HOLDERS 
                       AND CONTRIBUTORS BE
   29 00000000         ;   LIABLE FOR ANY DIRECT, INDIRECT, INCIDENTAL, SPECIAL
                       , EXEMPLARY, OR
   30 00000000         ;   CONSEQUENTIAL DAMAGES (INCLUDING, BUT NOT LIMITED TO
                       , PROCUREMENT OF
   31 00000000         ;   SUBSTITUTE GOODS OR SERVICES; LOSS OF USE, DATA, OR 
                       PROFITS; OR BUSINESS
   32 00000000         ;   INTERRUPTION) HOWEVER CAUSED AND ON ANY THEORY OF LI
                       ABILITY, WHETHER IN
   33 00000000         ;   CONTRACT, STRICT LIABILITY, OR TORT (INCLUDING NEGLI
                       GENCE OR OTHERWISE)
   34 00000000         ;   ARISING IN ANY WAY OUT OF THE USE OF THIS SOFTWARE, 
                       EVEN IF ADVISED OF THE
   35 00000000         ;   POSSIBILITY OF SUCH DAMAGE.
   36 00000000         ;   ----------------------------------------------------
                       -----------------------*/
   37 00000000         ;/*



ARM Macro Assembler    Page 2 


   38 00000000         ;//-------- <<< Use Configuration Wizard in Context Menu
                        >>> ------------------
   39 00000000         ;*/
   40 00000000         
   41 00000000         
   42 00000000         ; <h> Stack Configuration
   43 00000000         ;   <o> Stack Size (in Bytes) <0x0-0xFFFFFFFF:8>
   44 00000000         ; </h>
   45 00000000         
   46 00000000 00000400 
                       Stack_Size
                               EQU              0x00000400
   47 00000000         
   48 00000000                 AREA             STACK, NOINIT, READWRITE, ALIGN
=3
   49 00000000         Stack_Mem
                               SPACE            Stack_Size
   50 00000400         __initial_sp
   51 00000400         
   52 00000400         
   53 00000400         ; <h> Heap Configuration
   54 00000400         ;   <o>  Heap Size (in Bytes) <0x0-0xFFFFFFFF:8>
   55 00000400         ; </h>
   56 00000400         
   57 00000400 00000C00 
                       Heap_Size
                               EQU              0x00000C00
   58 00000400         
   59 00000400                 AREA             HEAP, NOINIT, READWRITE, ALIGN=
3
   60 00000000         __heap_base
   61 00000000         Heap_Mem
                               SPACE            Heap_Size
   62 00000C00         __heap_limit
   63 00000C00         
   64 00000C00         
   65 00000C00                 PRESERVE8
   66 00000C00                 THUMB
   67 00000C00         
   68 00000C00         
   69 00000C00         ; Vector Table Mapped to Address 0 at Reset
   70 00000C00         
   71 00000C00                 AREA             RESET, DATA, READONLY
   72 00000000                 EXPORT           __Vectors
   73 00000000         
   74 00000000 00000000 
                       __Vectors
                               DCD              __initial_sp ; Top of Stack
   75 00000004 00000000        DCD              Reset_Handler ; Reset Handler
   76 00000008 00000000        DCD              NMI_Handler ; NMI Handler
   77 0000000C 00000000        DCD              HardFault_Handler ; Hard Fault 
                                                            Handler
   78 00000010 00000000        DCD              MemManage_Handler 
                                                            ; MPU Fault Handler
                                                            
   79 00000014 00000000        DCD              BusFault_Handler 
                                                            ; Bus Fault Handler
                                                            
   80 00000018 00000000        DCD              UsageFault_Handler ; Usage Faul



ARM Macro Assembler    Page 3 


                                                            t Handler
   81 0000001C 00000000        DCD              0           ; Reserved
   82 00000020 00000000        DCD              0           ; Reserved
   83 00000024 00000000        DCD              0           ; Reserved
   84 00000028 00000000        DCD              0           ; Reserved
   85 0000002C 00000000        DCD              SVC_Handler ; SVCall Handler
   86 00000030 00000000        DCD              DebugMon_Handler ; Debug Monito
                                                            r Handler
   87 00000034 00000000        DCD              0           ; Reserved
   88 00000038 00000000        DCD              PendSV_Handler ; PendSV Handler
                                                            
   89 0000003C 00000000        DCD              SysTick_Handler 
                                                            ; SysTick Handler
   90 00000040         
   91 00000040         ; External Interrupts
   92 00000040 00000000        DCD              WDT_IRQHandler ; 16: Watchdog T
                                                            imer
   93 00000044 00000000        DCD              TIMER0_IRQHandler ; 17: Timer0
   94 00000048 00000000        DCD              TIMER1_IRQHandler ; 18: Timer1
   95 0000004C 00000000        DCD              TIMER2_IRQHandler ; 19: Timer2
   96 00000050 00000000        DCD              TIMER3_IRQHandler ; 20: Timer3
   97 00000054 00000000        DCD              UART0_IRQHandler ; 21: UART0
   98 00000058 00000000        DCD              UART1_IRQHandler ; 22: UART1
   99 0000005C 00000000        DCD              UART2_IRQHandler ; 23: UART2
  100 00000060 00000000        DCD              UART3_IRQHandler ; 24: UART3
  101 00000064 00000000        DCD              PWM1_IRQHandler ; 25: PWM1
  102 00000068 00000000        DCD              I2C0_IRQHandler ; 26: I2C0
  103 0000006C 00000000        DCD              I2C1_IRQHandler ; 27: I2C1
  104 00000070 00000000        DCD              I2C2_IRQHandler ; 28: I2C2
  105 00000074 00000000        DCD              SPI_IRQHandler ; 29: SPI
  106 00000078 00000000        DCD              SSP0_IRQHandler ; 30: SSP0
  107 0000007C 00000000        DCD              SSP1_IRQHandler ; 31: SSP1
  108 00000080 00000000        DCD              PLL0_IRQHandler ; 32: PLL0 Lock
                                                             (Main PLL)
  109 00000084 00000000        DCD              RTC_IRQHandler ; 33: Real Time 
                                                            Clock
  110 00000088 00000000        DCD              EINT0_IRQHandler ; 34: External
                                                             Interrupt 0
  111 0000008C 00000000        DCD              EINT1_IRQHandler ; 35: External
                                                             Interrupt 1
  112 00000090 00000000        DCD              EINT2_IRQHandler ; 36: External
                                                             Interrupt 2
  113 00000094 00000000        DCD              EINT3_IRQHandler ; 37: External
                                                             Interrupt 3
  114 00000098 00000000        DCD              ADC_IRQHandler 
                                                            ; 38: A/D Converter
                                                            
  115 0000009C 00000000        DCD              BOD_IRQHandler ; 39: Brown-Out 
                                                            Detect
  116 000000A0 00000000        DCD              USB_IRQHandler ; 40: USB
  117 000000A4 00000000        DCD              CAN_IRQHandler ; 41: CAN
  118 000000A8 00000000        DCD              DMA_IRQHandler ; 42: General Pu
                                                            rpose DMA
  119 000000AC 00000000        DCD              I2S_IRQHandler ; 43: I2S
  120 000000B0 00000000        DCD              ENET_IRQHandler ; 44: Ethernet
  121 000000B4 00000000        DCD              RIT_IRQHandler ; 45: Repetitive
                                                             Interrupt Timer
  122 000000B8 00000000        DCD              MCPWM_IRQHandler ; 46: Motor Co
                                                            ntrol PWM



ARM Macro Assembler    Page 4 


  123 000000BC 00000000        DCD              QEI_IRQHandler ; 47: Quadrature
                                                             Encoder Interface
  124 000000C0 00000000        DCD              PLL1_IRQHandler ; 48: PLL1 Lock
                                                             (USB PLL)
  125 000000C4         
  126 000000C4                 IF               :LNOT::DEF:NO_CRP
  127 000000C4                 AREA             |.ARM.__at_0x02FC|, CODE, READO
NLY
  128 00000000 FFFFFFFF 
                       CRP_Key DCD              0xFFFFFFFF
  129 00000004                 ENDIF
  130 00000004         
  131 00000004                 AREA             |.text|, CODE, READONLY
  132 00000000         
  133 00000000         
  134 00000000         ; Reset Handler
  135 00000000         
  136 00000000         Reset_Handler
                               PROC
  137 00000000                 EXPORT           Reset_Handler             [WEAK
]
  138 00000000                 IMPORT           __main
  139 00000000 4812            LDR              R0, =__main
  140 00000002 4700            BX               R0
  141 00000004                 ENDP
  142 00000004         
  143 00000004         
  144 00000004         ; Dummy Exception Handlers (infinite loops which can be 
                       modified)                
  145 00000004         
  146 00000004         NMI_Handler
                               PROC
  147 00000004                 EXPORT           NMI_Handler               [WEAK
]
  148 00000004 E7FE            B                .
  149 00000006                 ENDP
  151 00000006         HardFault_Handler
                               PROC
  152 00000006                 EXPORT           HardFault_Handler         [WEAK
]
  153 00000006 E7FE            B                .
  154 00000008                 ENDP
  156 00000008         MemManage_Handler
                               PROC
  157 00000008                 EXPORT           MemManage_Handler         [WEAK
]
  158 00000008 E7FE            B                .
  159 0000000A                 ENDP
  161 0000000A         BusFault_Handler
                               PROC
  162 0000000A                 EXPORT           BusFault_Handler          [WEAK
]
  163 0000000A E7FE            B                .
  164 0000000C                 ENDP
  166 0000000C         UsageFault_Handler
                               PROC
  167 0000000C                 EXPORT           UsageFault_Handler        [WEAK
]
  168 0000000C E7FE            B                .



ARM Macro Assembler    Page 5 


  169 0000000E                 ENDP
  170 0000000E         SVC_Handler
                               PROC
  171 0000000E                 EXPORT           SVC_Handler               [WEAK
]
  172 0000000E E7FE            B                .
  173 00000010                 ENDP
  175 00000010         DebugMon_Handler
                               PROC
  176 00000010                 EXPORT           DebugMon_Handler          [WEAK
]
  177 00000010 E7FE            B                .
  178 00000012                 ENDP
  179 00000012         PendSV_Handler
                               PROC
  180 00000012                 EXPORT           PendSV_Handler            [WEAK
]
  181 00000012 E7FE            B                .
  182 00000014                 ENDP
  183 00000014         SysTick_Handler
                               PROC
  184 00000014                 EXPORT           SysTick_Handler           [WEAK
]
  185 00000014 E7FE            B                .
  186 00000016                 ENDP
  187 00000016         
  188 00000016         Default_Handler
                               PROC
  189 00000016         
  190 00000016                 EXPORT           WDT_IRQHandler            [WEAK
]
  191 00000016                 EXPORT           TIMER0_IRQHandler         [WEAK
]
  192 00000016                 EXPORT           TIMER1_IRQHandler         [WEAK
]
  193 00000016                 EXPORT           TIMER2_IRQHandler         [WEAK
]
  194 00000016                 EXPORT           TIMER3_IRQHandler         [WEAK
]
  195 00000016                 EXPORT           UART0_IRQHandler          [WEAK
]
  196 00000016                 EXPORT           UART1_IRQHandler          [WEAK
]
  197 00000016                 EXPORT           UART2_IRQHandler          [WEAK
]
  198 00000016                 EXPORT           UART3_IRQHandler          [WEAK
]
  199 00000016                 EXPORT           PWM1_IRQHandler           [WEAK
]
  200 00000016                 EXPORT           I2C0_IRQHandler           [WEAK
]
  201 00000016                 EXPORT           I2C1_IRQHandler           [WEAK
]
  202 00000016                 EXPORT           I2C2_IRQHandler           [WEAK
]
  203 00000016                 EXPORT           SPI_IRQHandler            [WEAK
]
  204 00000016                 EXPORT           SSP0_IRQHandler           [WEAK
]



ARM Macro Assembler    Page 6 


  205 00000016                 EXPORT           SSP1_IRQHandler           [WEAK
]
  206 00000016                 EXPORT           PLL0_IRQHandler           [WEAK
]
  207 00000016                 EXPORT           RTC_IRQHandler            [WEAK
]
  208 00000016                 EXPORT           EINT0_IRQHandler          [WEAK
]
  209 00000016                 EXPORT           EINT1_IRQHandler          [WEAK
]
  210 00000016                 EXPORT           EINT2_IRQHandler          [WEAK
]
  211 00000016                 EXPORT           EINT3_IRQHandler          [WEAK
]
  212 00000016                 EXPORT           ADC_IRQHandler            [WEAK
]
  213 00000016                 EXPORT           BOD_IRQHandler            [WEAK
]
  214 00000016                 EXPORT           USB_IRQHandler            [WEAK
]
  215 00000016                 EXPORT           CAN_IRQHandler            [WEAK
]
  216 00000016                 EXPORT           DMA_IRQHandler            [WEAK
]
  217 00000016                 EXPORT           I2S_IRQHandler            [WEAK
]
  218 00000016                 EXPORT           ENET_IRQHandler           [WEAK
]
  219 00000016                 EXPORT           RIT_IRQHandler            [WEAK
]
  220 00000016                 EXPORT           MCPWM_IRQHandler          [WEAK
]
  221 00000016                 EXPORT           QEI_IRQHandler            [WEAK
]
  222 00000016                 EXPORT           PLL1_IRQHandler           [WEAK
]
  223 00000016         
  224 00000016         WDT_IRQHandler
  225 00000016         TIMER0_IRQHandler
  226 00000016         TIMER1_IRQHandler
  227 00000016         TIMER2_IRQHandler
  228 00000016         TIMER3_IRQHandler
  229 00000016         UART0_IRQHandler
  230 00000016         UART1_IRQHandler
  231 00000016         UART2_IRQHandler
  232 00000016         UART3_IRQHandler
  233 00000016         PWM1_IRQHandler
  234 00000016         I2C0_IRQHandler
  235 00000016         I2C1_IRQHandler
  236 00000016         I2C2_IRQHandler
  237 00000016         SPI_IRQHandler
  238 00000016         SSP0_IRQHandler
  239 00000016         SSP1_IRQHandler
  240 00000016         PLL0_IRQHandler
  241 00000016         RTC_IRQHandler
  242 00000016         EINT0_IRQHandler
  243 00000016         EINT1_IRQHandler
  244 00000016         EINT2_IRQHandler
  245 00000016         



ARM Macro Assembler    Page 7 


  246 00000016         
  247 00000016         EINT3_IRQHandler
                               PROC
  248 00000016                 EXPORT           EINT3_IRQHandler
  249 00000016                 IMPORT           JoyStick_IRQHandler
  250 00000016         
  251 00000016         ;Push registers to the stack
  252 00000016 E92D 500F       PUSH             {R0,R1,R2,R3,R12,LR}
  253 0000001A         
  254 0000001A         ; ==========================
  255 0000001A         ; Accessing Pushed Registers
  256 0000001A         ; ==========================
  257 0000001A         ; We can access the pushed registers if we need to use t
                       hem in
  258 0000001A         ; our interrupt handler:
  259 0000001A         ;
  260 0000001A         ; Bit[2] of the EXC_RETURN is the Stack Pointer Selector
                        (SPSEL)
  261 0000001A         ; SPSEL = '0' -> Points to MSP
  262 0000001A         ; SPSEL = '1' -> Points to PSP
  263 0000001A         ; --------------------------
  264 0000001A F01E 0F04       TST              LR,#0x04    ; Similar to ANDS, 
                                                            discards result
  265 0000001E BF0C            ITE              EQ          ; If SPSEL points t
                                                            o the MSP
  266 00000020         
  267 00000020 F3EF 8408       MRSEQ            R4,MSP      ; Then copy Main St
                                                            ack Pointer (MSP)
  268 00000024 F3EF 8409       MRSNE            R4,PSP      ; Else copy Program
                                                             Stack Pointer (PSP
                                                            )
  269 00000028         
  270 00000028 6821            LDR              R1,[R4]     ; Get R0 value from
                                                             Top of Stack
  271 0000002A 6862            LDR              R2,[R4,#4]  ; Get R1 value from
                                                             Stack
  272 0000002C 68A3            LDR              R3,[R4,#8]  ; Get R2 value from
                                                             Stack
  273 0000002E 6021            STR              R1,[R4]     ; Replace R0 value 
                                                            in stack
  274 00000030         ; --------------------------
  275 00000030         
  276 00000030         ;Branch to the C code
  277 00000030 F7FF FFFE       BL               JoyStick_IRQHandler
  278 00000034         
  279 00000034         ;Pop registers from the stack
  280 00000034 E8BD 900F       POP              {R0,R1,R2,R3,R12,PC}
  281 00000038         
  282 00000038         ; Return to Main Thread
  283 00000038 4770            BX               LR
  284 0000003A                 ENDP
  285 0000003A 00 00           ALIGN            4           ; Align to a word b
                                                            oundary 
  286 0000003C         
  287 0000003C         ADC_IRQHandler
  288 0000003C         BOD_IRQHandler
  289 0000003C         USB_IRQHandler
  290 0000003C         CAN_IRQHandler
  291 0000003C         DMA_IRQHandler



ARM Macro Assembler    Page 8 


  292 0000003C         I2S_IRQHandler
  293 0000003C         ENET_IRQHandler
  294 0000003C         RIT_IRQHandler
  295 0000003C         MCPWM_IRQHandler
  296 0000003C         QEI_IRQHandler
  297 0000003C         PLL1_IRQHandler
                               PROC
  298 0000003C E7FE            B                .
  299 0000003E         
  300 0000003E                 ENDP
  301 0000003E         
  302 0000003E         
  303 0000003E 00 00           ALIGN
  304 00000040         
  305 00000040         
  306 00000040         ; User Initial Stack & Heap
  307 00000040         
  308 00000040                 IF               :DEF:__MICROLIB
  315 00000040         
  316 00000040                 IMPORT           __use_two_region_memory
  317 00000040                 EXPORT           __user_initial_stackheap
  318 00000040         
  319 00000040         __user_initial_stackheap
                               PROC
  320 00000040 4803            LDR              R0, =  Heap_Mem
  321 00000042 4904            LDR              R1, =(Stack_Mem + Stack_Size)
  322 00000044 4A04            LDR              R2, = (Heap_Mem +  Heap_Size)
  323 00000046 4B05            LDR              R3, = Stack_Mem
  324 00000048 4770            BX               LR
  325 0000004A                 ENDP
  326 0000004A         
  327 0000004A 00 00           ALIGN
  328 0000004C         
  329 0000004C                 ENDIF
  330 0000004C         
  331 0000004C         
  332 0000004C                 END
              00000000 
              00000000 
              00000400 
              00000C00 
              00000000 
Command Line: --debug --xref --diag_suppress=9931 --cpu=Cortex-M3 --apcs=interw
ork --depend=.\build\startup_armcm3.d -o.\build\startup_armcm3.o -I.\RTE\_mbed_
NXP_LPC1768 -IC:\Users\admin\AppData\Local\Arm\Packs\ARM\CMSIS\5.8.0\CMSIS\Core
\Include -IC:\Users\admin\AppData\Local\Arm\Packs\Keil\LPC1700_DFP\2.7.1\Device
\Include --predefine="__UVISION_VERSION SETA 536" --predefine="_RTE_ SETA 1" --
predefine="LPC175x_6x SETA 1" --predefine="_RTE_ SETA 1" --list=.\build\startup
_armcm3.lst startup_ARMCM3.s



ARM Macro Assembler    Page 1 Alphabetic symbol ordering
Relocatable symbols

STACK 00000000

Symbol: STACK
   Definitions
      At line 48 in file startup_ARMCM3.s
   Uses
      None
Comment: STACK unused
Stack_Mem 00000000

Symbol: Stack_Mem
   Definitions
      At line 49 in file startup_ARMCM3.s
   Uses
      At line 321 in file startup_ARMCM3.s
      At line 323 in file startup_ARMCM3.s

__initial_sp 00000400

Symbol: __initial_sp
   Definitions
      At line 50 in file startup_ARMCM3.s
   Uses
      At line 74 in file startup_ARMCM3.s
Comment: __initial_sp used once
3 symbols



ARM Macro Assembler    Page 1 Alphabetic symbol ordering
Relocatable symbols

HEAP 00000000

Symbol: HEAP
   Definitions
      At line 59 in file startup_ARMCM3.s
   Uses
      None
Comment: HEAP unused
Heap_Mem 00000000

Symbol: Heap_Mem
   Definitions
      At line 61 in file startup_ARMCM3.s
   Uses
      At line 320 in file startup_ARMCM3.s
      At line 322 in file startup_ARMCM3.s

__heap_base 00000000

Symbol: __heap_base
   Definitions
      At line 60 in file startup_ARMCM3.s
   Uses
      None
Comment: __heap_base unused
__heap_limit 00000C00

Symbol: __heap_limit
   Definitions
      At line 62 in file startup_ARMCM3.s
   Uses
      None
Comment: __heap_limit unused
4 symbols



ARM Macro Assembler    Page 1 Alphabetic symbol ordering
Relocatable symbols

RESET 00000000

Symbol: RESET
   Definitions
      At line 71 in file startup_ARMCM3.s
   Uses
      None
Comment: RESET unused
__Vectors 00000000

Symbol: __Vectors
   Definitions
      At line 74 in file startup_ARMCM3.s
   Uses
      At line 72 in file startup_ARMCM3.s
Comment: __Vectors used once
2 symbols



ARM Macro Assembler    Page 1 Alphabetic symbol ordering
Relocatable symbols

.ARM.__at_0x02FC 00000000

Symbol: .ARM.__at_0x02FC
   Definitions
      At line 127 in file startup_ARMCM3.s
   Uses
      None
Comment: .ARM.__at_0x02FC unused
CRP_Key 00000000

Symbol: CRP_Key
   Definitions
      At line 128 in file startup_ARMCM3.s
   Uses
      None
Comment: CRP_Key unused
2 symbols



ARM Macro Assembler    Page 1 Alphabetic symbol ordering
Relocatable symbols

.text 00000000

Symbol: .text
   Definitions
      At line 131 in file startup_ARMCM3.s
   Uses
      None
Comment: .text unused
ADC_IRQHandler 0000003C

Symbol: ADC_IRQHandler
   Definitions
      At line 287 in file startup_ARMCM3.s
   Uses
      At line 114 in file startup_ARMCM3.s
      At line 212 in file startup_ARMCM3.s

BOD_IRQHandler 0000003C

Symbol: BOD_IRQHandler
   Definitions
      At line 288 in file startup_ARMCM3.s
   Uses
      At line 115 in file startup_ARMCM3.s
      At line 213 in file startup_ARMCM3.s

BusFault_Handler 0000000A

Symbol: BusFault_Handler
   Definitions
      At line 161 in file startup_ARMCM3.s
   Uses
      At line 79 in file startup_ARMCM3.s
      At line 162 in file startup_ARMCM3.s

CAN_IRQHandler 0000003C

Symbol: CAN_IRQHandler
   Definitions
      At line 290 in file startup_ARMCM3.s
   Uses
      At line 117 in file startup_ARMCM3.s
      At line 215 in file startup_ARMCM3.s

DMA_IRQHandler 0000003C

Symbol: DMA_IRQHandler
   Definitions
      At line 291 in file startup_ARMCM3.s
   Uses
      At line 118 in file startup_ARMCM3.s
      At line 216 in file startup_ARMCM3.s

DebugMon_Handler 00000010

Symbol: DebugMon_Handler
   Definitions
      At line 175 in file startup_ARMCM3.s
   Uses



ARM Macro Assembler    Page 2 Alphabetic symbol ordering
Relocatable symbols

      At line 86 in file startup_ARMCM3.s
      At line 176 in file startup_ARMCM3.s

Default_Handler 00000016

Symbol: Default_Handler
   Definitions
      At line 188 in file startup_ARMCM3.s
   Uses
      None
Comment: Default_Handler unused
EINT0_IRQHandler 00000016

Symbol: EINT0_IRQHandler
   Definitions
      At line 242 in file startup_ARMCM3.s
   Uses
      At line 110 in file startup_ARMCM3.s
      At line 208 in file startup_ARMCM3.s

EINT1_IRQHandler 00000016

Symbol: EINT1_IRQHandler
   Definitions
      At line 243 in file startup_ARMCM3.s
   Uses
      At line 111 in file startup_ARMCM3.s
      At line 209 in file startup_ARMCM3.s

EINT2_IRQHandler 00000016

Symbol: EINT2_IRQHandler
   Definitions
      At line 244 in file startup_ARMCM3.s
   Uses
      At line 112 in file startup_ARMCM3.s
      At line 210 in file startup_ARMCM3.s

EINT3_IRQHandler 00000016

Symbol: EINT3_IRQHandler
   Definitions
      At line 247 in file startup_ARMCM3.s
   Uses
      At line 113 in file startup_ARMCM3.s
      At line 211 in file startup_ARMCM3.s
      At line 248 in file startup_ARMCM3.s

ENET_IRQHandler 0000003C

Symbol: ENET_IRQHandler
   Definitions
      At line 293 in file startup_ARMCM3.s
   Uses
      At line 120 in file startup_ARMCM3.s
      At line 218 in file startup_ARMCM3.s

HardFault_Handler 00000006




ARM Macro Assembler    Page 3 Alphabetic symbol ordering
Relocatable symbols

Symbol: HardFault_Handler
   Definitions
      At line 151 in file startup_ARMCM3.s
   Uses
      At line 77 in file startup_ARMCM3.s
      At line 152 in file startup_ARMCM3.s

I2C0_IRQHandler 00000016

Symbol: I2C0_IRQHandler
   Definitions
      At line 234 in file startup_ARMCM3.s
   Uses
      At line 102 in file startup_ARMCM3.s
      At line 200 in file startup_ARMCM3.s

I2C1_IRQHandler 00000016

Symbol: I2C1_IRQHandler
   Definitions
      At line 235 in file startup_ARMCM3.s
   Uses
      At line 103 in file startup_ARMCM3.s
      At line 201 in file startup_ARMCM3.s

I2C2_IRQHandler 00000016

Symbol: I2C2_IRQHandler
   Definitions
      At line 236 in file startup_ARMCM3.s
   Uses
      At line 104 in file startup_ARMCM3.s
      At line 202 in file startup_ARMCM3.s

I2S_IRQHandler 0000003C

Symbol: I2S_IRQHandler
   Definitions
      At line 292 in file startup_ARMCM3.s
   Uses
      At line 119 in file startup_ARMCM3.s
      At line 217 in file startup_ARMCM3.s

MCPWM_IRQHandler 0000003C

Symbol: MCPWM_IRQHandler
   Definitions
      At line 295 in file startup_ARMCM3.s
   Uses
      At line 122 in file startup_ARMCM3.s
      At line 220 in file startup_ARMCM3.s

MemManage_Handler 00000008

Symbol: MemManage_Handler
   Definitions
      At line 156 in file startup_ARMCM3.s
   Uses
      At line 78 in file startup_ARMCM3.s



ARM Macro Assembler    Page 4 Alphabetic symbol ordering
Relocatable symbols

      At line 157 in file startup_ARMCM3.s

NMI_Handler 00000004

Symbol: NMI_Handler
   Definitions
      At line 146 in file startup_ARMCM3.s
   Uses
      At line 76 in file startup_ARMCM3.s
      At line 147 in file startup_ARMCM3.s

PLL0_IRQHandler 00000016

Symbol: PLL0_IRQHandler
   Definitions
      At line 240 in file startup_ARMCM3.s
   Uses
      At line 108 in file startup_ARMCM3.s
      At line 206 in file startup_ARMCM3.s

PLL1_IRQHandler 0000003C

Symbol: PLL1_IRQHandler
   Definitions
      At line 297 in file startup_ARMCM3.s
   Uses
      At line 124 in file startup_ARMCM3.s
      At line 222 in file startup_ARMCM3.s

PWM1_IRQHandler 00000016

Symbol: PWM1_IRQHandler
   Definitions
      At line 233 in file startup_ARMCM3.s
   Uses
      At line 101 in file startup_ARMCM3.s
      At line 199 in file startup_ARMCM3.s

PendSV_Handler 00000012

Symbol: PendSV_Handler
   Definitions
      At line 179 in file startup_ARMCM3.s
   Uses
      At line 88 in file startup_ARMCM3.s
      At line 180 in file startup_ARMCM3.s

QEI_IRQHandler 0000003C

Symbol: QEI_IRQHandler
   Definitions
      At line 296 in file startup_ARMCM3.s
   Uses
      At line 123 in file startup_ARMCM3.s
      At line 221 in file startup_ARMCM3.s

RIT_IRQHandler 0000003C

Symbol: RIT_IRQHandler



ARM Macro Assembler    Page 5 Alphabetic symbol ordering
Relocatable symbols

   Definitions
      At line 294 in file startup_ARMCM3.s
   Uses
      At line 121 in file startup_ARMCM3.s
      At line 219 in file startup_ARMCM3.s

RTC_IRQHandler 00000016

Symbol: RTC_IRQHandler
   Definitions
      At line 241 in file startup_ARMCM3.s
   Uses
      At line 109 in file startup_ARMCM3.s
      At line 207 in file startup_ARMCM3.s

Reset_Handler 00000000

Symbol: Reset_Handler
   Definitions
      At line 136 in file startup_ARMCM3.s
   Uses
      At line 75 in file startup_ARMCM3.s
      At line 137 in file startup_ARMCM3.s

SPI_IRQHandler 00000016

Symbol: SPI_IRQHandler
   Definitions
      At line 237 in file startup_ARMCM3.s
   Uses
      At line 105 in file startup_ARMCM3.s
      At line 203 in file startup_ARMCM3.s

SSP0_IRQHandler 00000016

Symbol: SSP0_IRQHandler
   Definitions
      At line 238 in file startup_ARMCM3.s
   Uses
      At line 106 in file startup_ARMCM3.s
      At line 204 in file startup_ARMCM3.s

SSP1_IRQHandler 00000016

Symbol: SSP1_IRQHandler
   Definitions
      At line 239 in file startup_ARMCM3.s
   Uses
      At line 107 in file startup_ARMCM3.s
      At line 205 in file startup_ARMCM3.s

SVC_Handler 0000000E

Symbol: SVC_Handler
   Definitions
      At line 170 in file startup_ARMCM3.s
   Uses
      At line 85 in file startup_ARMCM3.s
      At line 171 in file startup_ARMCM3.s



ARM Macro Assembler    Page 6 Alphabetic symbol ordering
Relocatable symbols


SysTick_Handler 00000014

Symbol: SysTick_Handler
   Definitions
      At line 183 in file startup_ARMCM3.s
   Uses
      At line 89 in file startup_ARMCM3.s
      At line 184 in file startup_ARMCM3.s

TIMER0_IRQHandler 00000016

Symbol: TIMER0_IRQHandler
   Definitions
      At line 225 in file startup_ARMCM3.s
   Uses
      At line 93 in file startup_ARMCM3.s
      At line 191 in file startup_ARMCM3.s

TIMER1_IRQHandler 00000016

Symbol: TIMER1_IRQHandler
   Definitions
      At line 226 in file startup_ARMCM3.s
   Uses
      At line 94 in file startup_ARMCM3.s
      At line 192 in file startup_ARMCM3.s

TIMER2_IRQHandler 00000016

Symbol: TIMER2_IRQHandler
   Definitions
      At line 227 in file startup_ARMCM3.s
   Uses
      At line 95 in file startup_ARMCM3.s
      At line 193 in file startup_ARMCM3.s

TIMER3_IRQHandler 00000016

Symbol: TIMER3_IRQHandler
   Definitions
      At line 228 in file startup_ARMCM3.s
   Uses
      At line 96 in file startup_ARMCM3.s
      At line 194 in file startup_ARMCM3.s

UART0_IRQHandler 00000016

Symbol: UART0_IRQHandler
   Definitions
      At line 229 in file startup_ARMCM3.s
   Uses
      At line 97 in file startup_ARMCM3.s
      At line 195 in file startup_ARMCM3.s

UART1_IRQHandler 00000016

Symbol: UART1_IRQHandler
   Definitions



ARM Macro Assembler    Page 7 Alphabetic symbol ordering
Relocatable symbols

      At line 230 in file startup_ARMCM3.s
   Uses
      At line 98 in file startup_ARMCM3.s
      At line 196 in file startup_ARMCM3.s

UART2_IRQHandler 00000016

Symbol: UART2_IRQHandler
   Definitions
      At line 231 in file startup_ARMCM3.s
   Uses
      At line 99 in file startup_ARMCM3.s
      At line 197 in file startup_ARMCM3.s

UART3_IRQHandler 00000016

Symbol: UART3_IRQHandler
   Definitions
      At line 232 in file startup_ARMCM3.s
   Uses
      At line 100 in file startup_ARMCM3.s
      At line 198 in file startup_ARMCM3.s

USB_IRQHandler 0000003C

Symbol: USB_IRQHandler
   Definitions
      At line 289 in file startup_ARMCM3.s
   Uses
      At line 116 in file startup_ARMCM3.s
      At line 214 in file startup_ARMCM3.s

UsageFault_Handler 0000000C

Symbol: UsageFault_Handler
   Definitions
      At line 166 in file startup_ARMCM3.s
   Uses
      At line 80 in file startup_ARMCM3.s
      At line 167 in file startup_ARMCM3.s

WDT_IRQHandler 00000016

Symbol: WDT_IRQHandler
   Definitions
      At line 224 in file startup_ARMCM3.s
   Uses
      At line 92 in file startup_ARMCM3.s
      At line 190 in file startup_ARMCM3.s

__user_initial_stackheap 00000040

Symbol: __user_initial_stackheap
   Definitions
      At line 319 in file startup_ARMCM3.s
   Uses
      At line 317 in file startup_ARMCM3.s
Comment: __user_initial_stackheap used once
46 symbols



ARM Macro Assembler    Page 1 Alphabetic symbol ordering
Absolute symbols

Heap_Size 00000C00

Symbol: Heap_Size
   Definitions
      At line 57 in file startup_ARMCM3.s
   Uses
      At line 61 in file startup_ARMCM3.s
      At line 322 in file startup_ARMCM3.s

Stack_Size 00000400

Symbol: Stack_Size
   Definitions
      At line 46 in file startup_ARMCM3.s
   Uses
      At line 49 in file startup_ARMCM3.s
      At line 321 in file startup_ARMCM3.s

2 symbols



ARM Macro Assembler    Page 1 Alphabetic symbol ordering
External symbols

JoyStick_IRQHandler 00000000

Symbol: JoyStick_IRQHandler
   Definitions
      At line 249 in file startup_ARMCM3.s
   Uses
      At line 277 in file startup_ARMCM3.s
Comment: JoyStick_IRQHandler used once
__main 00000000

Symbol: __main
   Definitions
      At line 138 in file startup_ARMCM3.s
   Uses
      At line 139 in file startup_ARMCM3.s
Comment: __main used once
__use_two_region_memory 00000000

Symbol: __use_two_region_memory
   Definitions
      At line 316 in file startup_ARMCM3.s
   Uses
      None
Comment: __use_two_region_memory unused
3 symbols
401 symbols in table
